{
  "data": [
   {
      "code":"W2219XS",
      "name":"Jaloo",
      "price":5098
   },
   {
      "code":"V316XXA",
      "name":"Gabspot",
      "price":8304
   },
   {
      "code":"H04519",
      "name":"Tavu",
      "price":3723
   },
   {
      "code":"S72092S",
      "name":"Feedmix",
      "price":2970
   },
   {
      "code":"S72036R",
      "name":"Midel",
      "price":284
   },
   {
      "code":"B483",
      "name":"Janyx",
      "price":5807
   },
   {
      "code":"S90454D",
      "name":"Twitterworks",
      "price":8582
   },
   {
      "code":"Z3493",
      "name":"Livetube",
      "price":8753
   },
   {
      "code":"I82523",
      "name":"Ainyx",
      "price":5731
   },
   {
      "code":"T50995S",
      "name":"Eare",
      "price":2416
   },
   {
      "code":"M9914",
      "name":"Twitternation",
      "price":5803
   },
   {
      "code":"S80851D",
      "name":"Roombo",
      "price":600
   },
   {
      "code":"S20361S",
      "name":"Vitz",
      "price":6590
   },
   {
      "code":"M4807",
      "name":"Livetube",
      "price":2457
   },
   {
      "code":"S82846J",
      "name":"Eazzy",
      "price":9405
   },
   {
      "code":"H492",
      "name":"Demizz",
      "price":537
   },
   {
      "code":"S59009",
      "name":"Voonix",
      "price":1317
   },
   {
      "code":"M00259",
      "name":"Youspan",
      "price":1241
   },
   {
      "code":"V281XXD",
      "name":"Reallinks",
      "price":232
   },
   {
      "code":"S22022",
      "name":"Voonyx",
      "price":9650
   },
   {
      "code":"S52125G",
      "name":"Bluezoom",
      "price":2734
   },
   {
      "code":"T478X5S",
      "name":"Shuffletag",
      "price":3425
   },
   {
      "code":"T2003",
      "name":"Devcast",
      "price":4583
   },
   {
      "code":"M710",
      "name":"Jaxbean",
      "price":9851
   },
   {
      "code":"S89229K",
      "name":"Tagtune",
      "price":805
   },
   {
      "code":"S06311D",
      "name":"Twinte",
      "price":604
   },
   {
      "code":"V536XXD",
      "name":"Gabtune",
      "price":3455
   },
   {
      "code":"S9135",
      "name":"Browseblab",
      "price":8606
   },
   {
      "code":"T656X4D",
      "name":"Photobug",
      "price":7629
   },
   {
      "code":"S82265F",
      "name":"Photobug",
      "price":3249
   },
   {
      "code":"S92252S",
      "name":"Feednation",
      "price":515
   },
   {
      "code":"S32441",
      "name":"Photobug",
      "price":7623
   },
   {
      "code":"Y36291D",
      "name":"Mydeo",
      "price":4926
   },
   {
      "code":"M24649",
      "name":"Skalith",
      "price":1329
   },
   {
      "code":"S8392XS",
      "name":"Zoombeat",
      "price":2440
   },
   {
      "code":"M9722",
      "name":"Edgeclub",
      "price":6125
   },
   {
      "code":"M24569",
      "name":"Oyoba",
      "price":4716
   },
   {
      "code":"S42012",
      "name":"Thoughtbeat",
      "price":651
   },
   {
      "code":"S72023B",
      "name":"Fanoodle",
      "price":8661
   },
   {
      "code":"H25019",
      "name":"Pixoboo",
      "price":5308
   },
   {
      "code":"V969XXA",
      "name":"Innojam",
      "price":2577
   },
   {
      "code":"S22042K",
      "name":"Yacero",
      "price":9641
   },
   {
      "code":"S49132",
      "name":"Tagcat",
      "price":6530
   },
   {
      "code":"S62016P",
      "name":"Jabberstorm",
      "price":1644
   },
   {
      "code":"S9259",
      "name":"Yamia",
      "price":1246
   },
   {
      "code":"T276XXS",
      "name":"Abatz",
      "price":9727
   },
   {
      "code":"S35219",
      "name":"Yakitri",
      "price":8800
   },
   {
      "code":"S62032A",
      "name":"Flashdog",
      "price":9070
   },
   {
      "code":"M80049S",
      "name":"Katz",
      "price":874
   },
   {
      "code":"M84359A",
      "name":"Voonyx",
      "price":6691
   },
   {
      "code":"S30877S",
      "name":"Zoovu",
      "price":2594
   },
   {
      "code":"G4381",
      "name":"Oyoloo",
      "price":3801
   },
   {
      "code":"T708XXA",
      "name":"Flashpoint",
      "price":4911
   },
   {
      "code":"S145XXD",
      "name":"Centizu",
      "price":8949
   },
   {
      "code":"D123",
      "name":"Twiyo",
      "price":2470
   },
   {
      "code":"S66518",
      "name":"Dabtype",
      "price":4738
   },
   {
      "code":"S8780XA",
      "name":"Blogspan",
      "price":3937
   },
   {
      "code":"Q681",
      "name":"Eamia",
      "price":3421
   },
   {
      "code":"S82232D",
      "name":"Wikibox",
      "price":2077
   },
   {
      "code":"S42447P",
      "name":"Kare",
      "price":5740
   },
   {
      "code":"T8692",
      "name":"Twimm",
      "price":2673
   },
   {
      "code":"Y36461",
      "name":"Skynoodle",
      "price":7951
   },
   {
      "code":"J84111",
      "name":"Geba",
      "price":1920
   },
   {
      "code":"R40213",
      "name":"Realfire",
      "price":8882
   },
   {
      "code":"K7200",
      "name":"Browsezoom",
      "price":4435
   },
   {
      "code":"M1A4411",
      "name":"Fadeo",
      "price":7850
   },
   {
      "code":"M6149",
      "name":"Roomm",
      "price":4507
   },
   {
      "code":"Z1639",
      "name":"Shuffledrive",
      "price":7917
   },
   {
      "code":"T24601S",
      "name":"Voomm",
      "price":3893
   },
   {
      "code":"M2670",
      "name":"Linkbridge",
      "price":761
   },
   {
      "code":"S56429",
      "name":"Einti",
      "price":1603
   },
   {
      "code":"S6051",
      "name":"Latz",
      "price":1362
   },
   {
      "code":"V9382XD",
      "name":"Yacero",
      "price":1854
   },
   {
      "code":"T83021",
      "name":"Oyoba",
      "price":8876
   },
   {
      "code":"S53192",
      "name":"Flipstorm",
      "price":4644
   },
   {
      "code":"T63421",
      "name":"Jabbersphere",
      "price":3153
   },
   {
      "code":"V122XXD",
      "name":"Jaloo",
      "price":1812
   },
   {
      "code":"O3661X1",
      "name":"Wordify",
      "price":898
   },
   {
      "code":"H40212",
      "name":"Edgeblab",
      "price":279
   },
   {
      "code":"N7001",
      "name":"Thoughtmix",
      "price":9777
   },
   {
      "code":"S60341A",
      "name":"Meevee",
      "price":345
   },
   {
      "code":"P281",
      "name":"Izio",
      "price":6362
   },
   {
      "code":"S81811D",
      "name":"Trilia",
      "price":5599
   },
   {
      "code":"S70249D",
      "name":"Bubbletube",
      "price":9426
   },
   {
      "code":"T2001",
      "name":"Jabberstorm",
      "price":1741
   },
   {
      "code":"S32019D",
      "name":"Omba",
      "price":4331
   },
   {
      "code":"V9541",
      "name":"Quaxo",
      "price":2143
   },
   {
      "code":"S63271D",
      "name":"Eayo",
      "price":6159
   },
   {
      "code":"I70731",
      "name":"Buzzdog",
      "price":1122
   },
   {
      "code":"M84759P",
      "name":"Brainbox",
      "price":1235
   },
   {
      "code":"J86",
      "name":"Topicblab",
      "price":8420
   },
   {
      "code":"Q7271",
      "name":"Nlounge",
      "price":4064
   },
   {
      "code":"S72355M",
      "name":"Eare",
      "price":7498
   },
   {
      "code":"H04432",
      "name":"Quire",
      "price":1569
   },
   {
      "code":"F4329",
      "name":"Demimbu",
      "price":8919
   },
   {
      "code":"V9380XS",
      "name":"Skyble",
      "price":3390
   },
   {
      "code":"B387",
      "name":"Plambee",
      "price":1038
   },
   {
      "code":"D720",
      "name":"Geba",
      "price":6724
   },
   {
      "code":"Y37001A",
      "name":"Feedfire",
      "price":2010
   },
   {
      "code":"T83191D",
      "name":"Browsedrive",
      "price":601
   }
  ]
}